{
  "name": "E-Tools",
  "version": "1.0.0",
  "description": "API Documentation for E-Tools endpoints.",
  "sampleUrl": false,
  "apidoc": "0.2.0",
  "generator": {
    "name": "apidoc",
    "time": "2016-07-31T19:30:12.840Z",
    "url": "http://apidocjs.com",
    "version": "0.16.1"
  }
}
